Data Analyzation Project in R for Google Data Analyzation Course
…
Correlataions between hourly intensities, calories, steps, heartrate
and METs

sorted_hourly_average_intensities

## # A tibble: 24 × 2
##    Hour_simple average_hourly_intensities
##    <chr>                            <dbl>
##  1 12 AM                             7.27
##  2 1 AM                              5.44
##  3 2 AM                              4.24
##  4 3 AM                              2.87
##  5 4 AM                              3.13
##  6 5 AM                             10.5 
##  7 6 AM                             17.0 
##  8 7 AM                             19.5 
##  9 8 AM                             24.1 
## 10 9 AM                             24.4 
## # ℹ 14 more rows
…
